…
    ## Warning in FUN(X[[i]], ...): NAs introduced by coercion

    ## Warning in FUN(X[[i]], ...): NAs introduced by coercion

    ## Warning in FUN(X[[i]], ...): NAs introduced by coercion

    ## Warning in FUN(X[[i]], ...): NAs introduced by coercion

    ## Warning in FUN(X[[i]], ...): NAs introduced by coercion

``` r
print(variable_info)
```

    ## # A tibble: 28 × 6
    ##    variable   exists_in_data type      description                levels numer…¹
    ##    <chr>      <lgl>          <chr>     <chr>                      <chr>  <chr>  
    ##  1 presart    TRUE           factor    Currently take medication… No; Y… NA; NA 
    ##  2 presartm   TRUE           character Blood pressure: medicatio… No; Y… NA; NA 
    ##  3 depression TRUE           numeric   CES-D total                No; Y… NA; NA 
    ##  4 htdrugs    TRUE           factor    Specific Anti-hypertensiv… No; Y… NA; NA 
    ##  5 hts        TRUE           factor    Systolic HT                No; Y… NA; NA 
    ##  6 htd        TRUE           factor    Diastolic HT               No; Y… NA; NA 
    ##  7 ht1        TRUE           factor    Hypertension (measured on… No; Y… NA; NA 
    ##  8 htdx       TRUE           factor    Hypertension diagnosed by… No; Y… NA; NA 
    ##  9 presartmay TRUE           numeric   No label attribute         No; Y… NA; NA 
    ## 10 hosprespi  TRUE           numeric   No label attribute         No; Y… NA; NA 
    ## # … with 18 more rows, and abbreviated variable name ¹​numeric_levels
…
    ## Warning in FUN(X[[i]], ...): NAs introduced by coercion

    ## Warning in FUN(X[[i]], ...): NAs introduced by coercion

    ## Warning in FUN(X[[i]], ...): NAs introduced by coercion

    ## Warning in FUN(X[[i]], ...): NAs introduced by coercion

    ## Warning in FUN(X[[i]], ...): NAs introduced by coercion

``` r
print(variable_info)
```

    ## # A tibble: 39 × 6
    ##    variable    exists_in_data type      description               levels numer…¹
    ##    <chr>       <lgl>          <chr>     <chr>                     <chr>  <chr>  
    ##  1 diabetesm   TRUE           factor    Currently take medicatio… No; Y… NA; NA 
    ##  2 diabetesmed TRUE           character Diabetes: medication name No; Y… NA; NA 
    ##  3 diabetes    TRUE           factor    Diabetes                  No; Y… NA; NA 
    ##  4 diabete_q   TRUE           factor    Diabetes diagnosed by     No; Y… NA; NA 
    ##  5 diabete_l   TRUE           factor    Diabetes: Place of diagn… No; Y… NA; NA 
    ##  6 diabete_a   TRUE           numeric   Diabetes: years since di… No; Y… NA; NA 
    ##  7 diabete_p   TRUE           factor    Diabetes: Parents         No; Y… NA; NA 
    ##  8 diabete_v   TRUE           factor    Diabetes: Grandparents    No; Y… NA; NA 
    ##  9 diabete_h   TRUE           factor    Diabetes: Siblings        No; Y… NA; NA 
    ## 10 diabete_t   TRUE           factor    Diabetes: Uncles/Aunts    No; Y… NA; NA 
    ## # … with 29 more rows, and abbreviated variable name ¹​numeric_levels
…
    ## Warning in FUN(X[[i]], ...): NAs introduced by coercion

    ## Warning in FUN(X[[i]], ...): NAs introduced by coercion

    ## Warning in FUN(X[[i]], ...): NAs introduced by coercion

    ## Warning in FUN(X[[i]], ...): NAs introduced by coercion

    ## Warning in FUN(X[[i]], ...): NAs introduced by coercion

``` r
print(variable_info)
```

    ## # A tibble: 28 × 6
    ##    variable   exists_in_data type      description                levels numer…¹
    ##    <chr>      <lgl>          <chr>     <chr>                      <chr>  <chr>  
    ##  1 presart    TRUE           factor    Currently take medication… No; Y… NA; NA 
    ##  2 presartm   TRUE           character Blood pressure: medicatio… No; Y… NA; NA 
    ##  3 depression TRUE           numeric   CES-D total                No; Y… NA; NA 
    ##  4 htdrugs    TRUE           factor    Specific Anti-hypertensiv… No; Y… NA; NA 
    ##  5 hts        TRUE           factor    Systolic HT                No; Y… NA; NA 
    ##  6 htd        TRUE           factor    Diastolic HT               No; Y… NA; NA 
    ##  7 ht1        TRUE           factor    Hypertension (measured on… No; Y… NA; NA 
    ##  8 htdx       TRUE           factor    Hypertension diagnosed by… No; Y… NA; NA 
    ##  9 presartmay TRUE           numeric   No label attribute         No; Y… NA; NA 
    ## 10 hosprespi  TRUE           numeric   No label attribute         No; Y… NA; NA 
    ## # … with 18 more rows, and abbreviated variable name ¹​numeric_levels
…
    ## Warning in FUN(X[[i]], ...): NAs introduced by coercion

    ## Warning in FUN(X[[i]], ...): NAs introduced by coercion

    ## Warning in FUN(X[[i]], ...): NAs introduced by coercion

    ## Warning in FUN(X[[i]], ...): NAs introduced by coercion

    ## Warning in FUN(X[[i]], ...): NAs introduced by coercion

``` r
print(variable_info)
```

    ## # A tibble: 39 × 6
    ##    variable    exists_in_data type      description               levels numer…¹
    ##    <chr>       <lgl>          <chr>     <chr>                     <chr>  <chr>  
    ##  1 diabetesm   TRUE           factor    Currently take medicatio… No; Y… NA; NA 
    ##  2 diabetesmed TRUE           character Diabetes: medication name No; Y… NA; NA 
    ##  3 diabetes    TRUE           factor    Diabetes                  No; Y… NA; NA 
    ##  4 diabete_q   TRUE           factor    Diabetes diagnosed by     No; Y… NA; NA 
    ##  5 diabete_l   TRUE           factor    Diabetes: Place of diagn… No; Y… NA; NA 
    ##  6 diabete_a   TRUE           numeric   Diabetes: years since di… No; Y… NA; NA 
    ##  7 diabete_p   TRUE           factor    Diabetes: Parents         No; Y… NA; NA 
    ##  8 diabete_v   TRUE           factor    Diabetes: Grandparents    No; Y… NA; NA 
    ##  9 diabete_h   TRUE           factor    Diabetes: Siblings        No; Y… NA; NA 
    ## 10 diabete_t   TRUE           factor    Diabetes: Uncles/Aunts    No; Y… NA; NA 
    ## # … with 29 more rows, and abbreviated variable name ¹​numeric_levels
…
